{
  "rules": {
    "accessor-pairs": 2,
    "array-callback-return": 2,
    "block-scoped-var": 1,
    "class-methods-use-this": 1,
    "complexity": 1,
    "consistent-return": 1,
    "curly": 2,
    "default-case": 2,
    "dot-location": 0,
    "dot-notation": 2,
    "eqeqeq": 2,
    "guard-for-in": 1,
    "no-alert": 1,
    "no-caller": 1,
    "no-case-declarations": 1,
    "no-div-regex": 1,
    "no-else-return": 1,
    "no-empty-function": [1, {
      "allow": ["arrowFunctions"]
    }],
    "no-empty-pattern": 2,
    "no-eq-null": 2,
    "no-eval": 2,
    "no-extend-native": 2,
    "no-extra-bind": 2,
    "no-extra-label": 2,
    "no-fallthrough": 2,
    "no-floating-decimal": 2,
    "no-global-assign": 2,
    "no-implicit-coercion": 2,
    "no-implied-eval": 2,
    "no-invalid-this": 0,
    "no-iterator": 2,
    "no-labels": 2,
    "no-lone-blocks": 2,
    "no-loop-func": 2,
    "no-magic-numbers": 0, // Useful to disable
    "no-multi-spaces": 2,
    "no-multi-str": 1,
    "no-new": 2,
    "no-new-func": 2,
    "no-new-wrappers": 2,
    "no-octal": 1,
    "no-octal-escape": 1,
    "no-param-reassign": 2,
    "no-proto": 2,
    "no-redeclare": 2,
    "no-restricted-properties": 0,
    "no-return-assign": 0,
    "no-return-await": 2,
    "no-script-url": 2,
    "no-self-assign": 2,
    "no-self-compare": 2,
    "no-sequences": 2,
    "no-throw-literal": 2,
    "no-unmodified-loop-condition": 2,
    "no-unused-expressions": 1,
    "no-unused-labels": 2,
    "no-useless-call": 2,
    "no-useless-concat": 2,
    "no-useless-escape": 2,
    "no-useless-return": 2,
    "no-void": 2,
    "no-warning-comments": 1,
    "no-with": 2,
    "prefer-promise-reject-errors": 1,
    "radix": 2,
    "require-await": 1,
    "vars-on-top": 1,
    "wrap-iife": 2,
    "yoda": 2
  }
}
